{
  "data_case_5": {
    "data": {
      "id": 5,
      "name": "Chelsey Dietrich",
      "username": "Kamren",
      "email": "Lucio_Hettinger@annie.ca",
      "address": {
        "street": "Skiles Walks",
        "suite": "Suite 351",
        "city": "Roscoeview",
        "zipcode": "33263",
        "geo": {
          "lat": "-31.8129",
          "lng": "62.5342"
        }
      },
      "phone": "(254)954-1289",
      "website": "demarco.info",
      "company": {
        "name": "Keebler LLC",
        "catchPhrase": "User-centric fault-tolerant solution",
        "bs": "revolutionize end-to-end systems"
      }
    },
    "status_code": 200,
    "id": 5
  },
    "data_case_1": {
      "status_code": 200
    },
    "data_case_2": {
      "request": "99",
      "status_code": 200,
      "userId": 10,
      "id": 99,
      "title": "",
      "body": ""
    },
    "data_case_3": {
      "request": "150",
      "status_code": 404
    },
    "data_case_4": {
      "status_code": 201,
      "userId": 1,
      "id": 101,
      "title_size": 11,
      "body_size": 12
    },
    "data_case_6": {
      "status_code": 200,
      "id": 5
    }
}